xof 0303txt 0032

template XSkinMeshHeader {
  <3cf169ce-ff7c-44ab-93c0-f78f62d172e2>
  WORD nMaxSkinWeightsPerVertex;
  WORD nMaxSkinWeightsPerFace;
  WORD nBones;
}

template SkinWeights {
  <6f0d123b-bad2-4167-a0d0-80224f25fabb>
  STRING transformNodeName;
  DWORD nWeights;
  array DWORD vertexIndices[nWeights];
  array float weights[nWeights];
  Matrix4x4 matrixOffset;
}

Frame Root {
  FrameTransformMatrix {
     1.000000, 0.000000, 0.000000, 0.000000,
     0.000000,-0.000000, 1.000000, 0.000000,
     0.000000, 1.000000, 0.000000, 0.000000,
     0.000000, 0.000000, 0.000000, 1.000000;;
  }
  Frame Armature {
    FrameTransformMatrix {
       2.784585, 0.000000, 0.000000, 0.000000,
       0.000000, 2.784585, 0.000000, 0.000000,
       0.000000, 0.000000, 2.784585, 0.000000,
       0.000000, 0.000000, 0.000000, 1.000000;;
    }
    Frame Armature_Bone {
      FrameTransformMatrix {
         1.000000, 0.000000, 0.000000, 0.000000,
         0.000000, 0.000000, 1.000000, 0.000000,
         0.000000,-1.000000, 0.000000, 0.000000,
         0.000000, 0.000000,-0.420019, 1.000000;;
      }
    } // End of Armature_Bone
    Frame Cube {
      FrameTransformMatrix {
         0.359120, 0.000000, 0.000000, 0.000000,
         0.000000, 0.359120, 0.000000, 0.000000,
         0.000000, 0.000000, 0.359120, 0.000000,
         0.000000, 0.000000, 0.000000, 1.000000;;
      }
      Mesh { // Cube mesh
        240;
         1.311551; 1.311551;-1.110842;,
         1.311551;-1.311551;-1.110842;,
        -1.311551;-1.311550;-1.110842;,
        -1.311550; 1.311551;-1.110842;,
         1.311551; 1.311550;-0.177607;,
        -1.311550; 1.311551;-0.177607;,
        -1.311551;-1.311550;-0.177607;,
         1.311550;-1.311551;-0.177607;,
         1.311551; 1.311551;-1.110842;,
         1.311551; 1.311550;-0.177607;,
         1.311550;-1.311551;-0.177607;,
         1.311551;-1.311551;-1.110842;,
         1.311551;-1.311551;-1.110842;,
         1.311550;-1.311551;-0.177607;,
        -1.311551;-1.311550;-0.177607;,
        -1.311551;-1.311550;-1.110842;,
        -1.311551;-1.311550;-1.110842;,
        -1.311551;-1.311550;-0.177607;,
        -1.311550; 1.311551;-0.177607;,
        -1.311550; 1.311551;-1.110842;,
         1.311551; 1.311550;-0.177607;,
         1.311551; 1.311551;-1.110842;,
        -1.311550; 1.311551;-1.110842;,
        -1.311550; 1.311551;-0.177607;,
        -0.156794;-0.423892; 2.216348;,
        -0.156794;-0.129215; 2.109094;,
        -0.156794;-1.011493;-0.314942;,
        -0.156794;-1.306169;-0.207689;,
        -0.156794;-0.129215; 2.109094;,
         0.156794;-0.129215; 2.109094;,
         0.156794;-1.011493;-0.314942;,
        -0.156794;-1.011493;-0.314942;,
         0.156794;-0.129215; 2.109094;,
         0.156794;-0.423892; 2.216348;,
         0.156794;-1.306169;-0.207689;,
         0.156794;-1.011493;-0.314942;,
         0.156794;-0.423892; 2.216348;,
        -0.156794;-0.423892; 2.216348;,
        -0.156794;-1.306169;-0.207689;,
         0.156794;-1.306169;-0.207689;,
        -0.156794;-1.306169;-0.207689;,
        -0.156794;-1.011493;-0.314942;,
         0.156794;-1.011493;-0.314942;,
         0.156794;-1.306169;-0.207689;,
         0.156794;-0.423892; 2.216348;,
         0.156794;-0.129215; 2.109094;,
        -0.156794;-0.129215; 2.109094;,
        -0.156794;-0.423892; 2.216348;,
         0.113526;-0.156794; 2.131889;,
         0.113526; 0.156794; 2.131889;,
         0.995804; 0.156794;-0.292148;,
         0.995804;-0.156794;-0.292148;,
         0.113526; 0.156794; 2.131889;,
         0.408203; 0.156794; 2.239142;,
         1.290480; 0.156794;-0.184895;,
         0.995804; 0.156794;-0.292148;,
         0.408203; 0.156794; 2.239142;,
         0.408203;-0.156794; 2.239142;,
         1.290480;-0.156794;-0.184895;,
         1.290480; 0.156794;-0.184895;,
         0.408203;-0.156794; 2.239142;,
         0.113526;-0.156794; 2.131889;,
         0.995804;-0.156794;-0.292148;,
         1.290480;-0.156794;-0.184895;,
         0.995804;-0.156794;-0.292148;,
         0.995804; 0.156794;-0.292148;,
         1.290480; 0.156794;-0.184895;,
         1.290480;-0.156794;-0.184895;,
         0.408203;-0.156794; 2.239142;,
         0.408203; 0.156794; 2.239142;,
         0.113526; 0.156794; 2.131889;,
         0.113526;-0.156794; 2.131889;,
        -0.156794; 0.128930; 2.123164;,
        -0.156794; 0.423607; 2.230418;,
        -0.156794; 1.305884;-0.193619;,
        -0.156794; 1.011208;-0.300872;,
        -0.156794; 0.423607; 2.230418;,
         0.156794; 0.423607; 2.230418;,
         0.156794; 1.305884;-0.193619;,
        -0.156794; 1.305884;-0.193619;,
         0.156794; 0.423607; 2.230418;,
         0.156794; 0.128930; 2.123164;,
         0.156794; 1.011208;-0.300872;,
         0.156794; 1.305884;-0.193619;,
         0.156794; 0.128930; 2.123164;,
        -0.156794; 0.128930; 2.123164;,
        -0.156794; 1.011208;-0.300872;,
         0.156794; 1.011208;-0.300872;,
        -0.156794; 1.011208;-0.300872;,
        -0.156794; 1.305884;-0.193619;,
         0.156794; 1.305884;-0.193619;,
         0.156794; 1.011208;-0.300872;,
         0.156794; 0.128930; 2.123164;,
         0.156794; 0.423607; 2.230418;,
        -0.156794; 0.423607; 2.230418;,
        -0.156794; 0.128930; 2.123164;,
        -0.419520;-0.156794; 2.217748;,
        -0.419520; 0.156794; 2.217748;,
        -1.301798; 0.156794;-0.206289;,
        -1.301798;-0.156794;-0.206289;,
        -0.419520; 0.156794; 2.217748;,
        -0.124844; 0.156794; 2.110494;,
        -1.007122; 0.156794;-0.313542;,
        -1.301798; 0.156794;-0.206289;,
        -0.124844; 0.156794; 2.110494;,
        -0.124844;-0.156794; 2.110494;,
        -1.007122;-0.156794;-0.313542;,
        -1.007122; 0.156794;-0.313542;,
        -0.124844;-0.156794; 2.110494;,
        -0.419520;-0.156794; 2.217748;,
        -1.301798;-0.156794;-0.206289;,
        -1.007122;-0.156794;-0.313542;,
        -1.301798;-0.156794;-0.206289;,
        -1.301798; 0.156794;-0.206289;,
        -1.007122; 0.156794;-0.313542;,
        -1.007122;-0.156794;-0.313542;,
        -0.124844;-0.156794; 2.110494;,
        -0.124844; 0.156794; 2.110494;,
        -0.419520; 0.156794; 2.217748;,
        -0.419520;-0.156794; 2.217748;,
         0.705927; 0.121369; 1.073823;,
         0.026438; 0.800858; 1.073823;,
         0.026438; 0.800858; 0.733545;,
         0.705927; 0.121369; 0.733545;,
         0.026438; 0.800858; 1.073823;,
         0.267051; 1.041471; 1.073823;,
         0.267051; 1.041471; 0.733545;,
         0.026438; 0.800858; 0.733545;,
         0.267051; 1.041471; 1.073823;,
         0.946540; 0.361982; 1.073823;,
         0.946540; 0.361982; 0.733545;,
         0.267051; 1.041471; 0.733545;,
         0.946540; 0.361982; 1.073823;,
         0.705927; 0.121369; 1.073823;,
         0.705927; 0.121369; 0.733545;,
         0.946540; 0.361982; 0.733545;,
         0.705927; 0.121369; 0.733545;,
         0.026438; 0.800858; 0.733545;,
         0.267051; 1.041471; 0.733545;,
         0.946540; 0.361982; 0.733545;,
         0.946540; 0.361982; 1.073823;,
         0.267051; 1.041471; 1.073823;,
         0.026438; 0.800858; 1.073823;,
         0.705927; 0.121369; 1.073823;,
         0.946540;-0.331722; 1.073823;,
         0.267051;-1.011212; 1.073823;,
         0.267051;-1.011212; 0.733545;,
         0.946540;-0.331722; 0.733545;,
         0.267051;-1.011212; 1.073823;,
         0.026438;-0.770600; 1.073823;,
         0.026438;-0.770600; 0.733545;,
         0.267051;-1.011212; 0.733545;,
         0.026438;-0.770600; 1.073823;,
         0.705927;-0.091110; 1.073823;,
         0.705927;-0.091110; 0.733545;,
         0.026438;-0.770600; 0.733545;,
         0.705927;-0.091110; 1.073823;,
         0.946540;-0.331722; 1.073823;,
         0.946540;-0.331722; 0.733545;,
         0.705927;-0.091110; 0.733545;,
         0.946540;-0.331722; 0.733545;,
         0.267051;-1.011212; 0.733545;,
         0.026438;-0.770600; 0.733545;,
         0.705927;-0.091110; 0.733545;,
         0.705927;-0.091110; 1.073823;,
         0.026438;-0.770600; 1.073823;,
         0.267051;-1.011212; 1.073823;,
         0.946540;-0.331722; 1.073823;,
        -0.705927; 0.121369; 0.733545;,
        -0.026438; 0.800858; 0.733545;,
        -0.026438; 0.800858; 1.073823;,
        -0.705927; 0.121369; 1.073823;,
        -0.026438; 0.800858; 0.733545;,
        -0.267051; 1.041471; 0.733545;,
        -0.267051; 1.041471; 1.073823;,
        -0.026438; 0.800858; 1.073823;,
        -0.267051; 1.041471; 0.733545;,
        -0.946540; 0.361982; 0.733545;,
        -0.946540; 0.361982; 1.073823;,
        -0.267051; 1.041471; 1.073823;,
        -0.946540; 0.361982; 0.733545;,
        -0.705927; 0.121369; 0.733545;,
        -0.705927; 0.121369; 1.073823;,
        -0.946540; 0.361982; 1.073823;,
        -0.946540; 0.361982; 0.733545;,
        -0.267051; 1.041471; 0.733545;,
        -0.026438; 0.800858; 0.733545;,
        -0.705927; 0.121369; 0.733545;,
        -0.705927; 0.121369; 1.073823;,
        -0.026438; 0.800858; 1.073823;,
        -0.267051; 1.041471; 1.073823;,
        -0.946540; 0.361982; 1.073823;,
        -0.946540;-0.331722; 0.733545;,
        -0.267051;-1.011212; 0.733545;,
        -0.267051;-1.011212; 1.073823;,
        -0.946540;-0.331722; 1.073823;,
        -0.267051;-1.011212; 0.733545;,
        -0.026438;-0.770600; 0.733545;,
        -0.026438;-0.770600; 1.073823;,
        -0.267051;-1.011212; 1.073823;,
        -0.026438;-0.770600; 0.733545;,
        -0.705927;-0.091110; 0.733545;,
        -0.705927;-0.091110; 1.073823;,
        -0.026438;-0.770600; 1.073823;,
        -0.705927;-0.091110; 0.733545;,
        -0.946540;-0.331722; 0.733545;,
        -0.946540;-0.331722; 1.073823;,
        -0.705927;-0.091110; 1.073823;,
        -0.705927;-0.091110; 0.733545;,
        -0.026438;-0.770600; 0.733545;,
        -0.267051;-1.011212; 0.733545;,
        -0.946540;-0.331722; 0.733545;,
        -0.946540;-0.331722; 1.073823;,
        -0.267051;-1.011212; 1.073823;,
        -0.026438;-0.770600; 1.073823;,
        -0.705927;-0.091110; 1.073823;,
        -0.185338;-0.185338; 2.792331;,
        -0.185338; 0.185338; 2.792331;,
        -0.185338; 0.185338; 2.014730;,
        -0.185338;-0.185338; 2.014730;,
        -0.185338; 0.185338; 2.792331;,
         0.185338; 0.185338; 2.792331;,
         0.185338; 0.185338; 2.014730;,
        -0.185338; 0.185338; 2.014730;,
         0.185338; 0.185338; 2.792331;,
         0.185338;-0.185338; 2.792331;,
         0.185338;-0.185338; 2.014730;,
         0.185338; 0.185338; 2.014730;,
         0.185338;-0.185338; 2.792331;,
        -0.185338;-0.185338; 2.792331;,
        -0.185338;-0.185338; 2.014730;,
         0.185338;-0.185338; 2.014730;,
        -0.185338;-0.185338; 2.014730;,
        -0.185338; 0.185338; 2.014730;,
         0.185338; 0.185338; 2.014730;,
         0.185338;-0.185338; 2.014730;,
         0.185338;-0.185338; 2.792331;,
         0.185338; 0.185338; 2.792331;,
        -0.185338; 0.185338; 2.792331;,
        -0.185338;-0.185338; 2.792331;;
        60;
        4;3,2,1,0;,
        4;7,6,5,4;,
        4;11,10,9,8;,
        4;15,14,13,12;,
        4;19,18,17,16;,
        4;23,22,21,20;,
        4;27,26,25,24;,
        4;31,30,29,28;,
        4;35,34,33,32;,
        4;39,38,37,36;,
        4;43,42,41,40;,
        4;47,46,45,44;,
        4;51,50,49,48;,
        4;55,54,53,52;,
        4;59,58,57,56;,
        4;63,62,61,60;,
        4;67,66,65,64;,
        4;71,70,69,68;,
        4;75,74,73,72;,
        4;79,78,77,76;,
        4;83,82,81,80;,
        4;87,86,85,84;,
        4;91,90,89,88;,
        4;95,94,93,92;,
        4;99,98,97,96;,
        4;103,102,101,100;,
        4;107,106,105,104;,
        4;111,110,109,108;,
        4;115,114,113,112;,
        4;119,118,117,116;,
        4;123,122,121,120;,
        4;127,126,125,124;,
        4;131,130,129,128;,
        4;135,134,133,132;,
        4;139,138,137,136;,
        4;143,142,141,140;,
        4;147,146,145,144;,
        4;151,150,149,148;,
        4;155,154,153,152;,
        4;159,158,157,156;,
        4;163,162,161,160;,
        4;167,166,165,164;,
        4;171,170,169,168;,
        4;175,174,173,172;,
        4;179,178,177,176;,
        4;183,182,181,180;,
        4;187,186,185,184;,
        4;191,190,189,188;,
        4;195,194,193,192;,
        4;199,198,197,196;,
        4;203,202,201,200;,
        4;207,206,205,204;,
        4;211,210,209,208;,
        4;215,214,213,212;,
        4;219,218,217,216;,
        4;223,222,221,220;,
        4;227,226,225,224;,
        4;231,230,229,228;,
        4;235,234,233,232;,
        4;239,238,237,236;;
        MeshNormals { // Cube normals
          60;
           0.000000; 0.000000;-1.000000;,
           0.000000;-0.000000; 1.000000;,
           1.000000;-0.000000; 0.000000;,
          -0.000000;-1.000000;-0.000000;,
          -1.000000; 0.000000;-0.000000;,
           0.000000; 1.000000; 0.000001;,
          -1.000000; 0.000000; 0.000000;,
           0.000000; 0.939693;-0.342020;,
           1.000000; 0.000000; 0.000000;,
           0.000000;-0.939693; 0.342020;,
           0.000000;-0.342020;-0.939693;,
           0.000000; 0.342021; 0.939692;,
          -0.939693; 0.000000;-0.342020;,
           0.000000; 1.000000; 0.000000;,
           0.939693; 0.000000; 0.342020;,
           0.000000;-1.000000; 0.000000;,
           0.342020; 0.000000;-0.939693;,
          -0.342020; 0.000000; 0.939693;,
          -1.000000; 0.000000; 0.000000;,
           0.000000; 0.939693; 0.342020;,
           1.000000; 0.000000; 0.000000;,
           0.000000;-0.939693;-0.342020;,
           0.000000; 0.342020;-0.939693;,
           0.000000;-0.342020; 0.939693;,
          -0.939693; 0.000000; 0.342020;,
           0.000000; 1.000000; 0.000000;,
           0.939693; 0.000000;-0.342020;,
           0.000000;-1.000000; 0.000000;,
          -0.342020; 0.000000;-0.939693;,
           0.342020; 0.000000; 0.939693;,
          -0.707107;-0.707107; 0.000000;,
          -0.707107; 0.707106; 0.000000;,
           0.707107; 0.707107; 0.000000;,
           0.707107;-0.707107; 0.000000;,
          -0.000000;-0.000000;-1.000000;,
          -0.000000;-0.000000; 1.000000;,
           0.707107;-0.707106; 0.000000;,
          -0.707106;-0.707108; 0.000000;,
          -0.707107; 0.707106; 0.000000;,
           0.707106; 0.707107; 0.000000;,
           0.000000;-0.000000;-1.000000;,
           0.000000;-0.000000; 1.000000;,
           0.707107;-0.707107; 0.000000;,
           0.707107; 0.707106; 0.000000;,
          -0.707107; 0.707107; 0.000000;,
          -0.707107;-0.707107; 0.000000;,
          -0.000000; 0.000000;-1.000000;,
          -0.000000; 0.000000; 1.000000;,
          -0.707107;-0.707106; 0.000000;,
           0.707106;-0.707108; 0.000000;,
           0.707107; 0.707106; 0.000000;,
          -0.707106; 0.707107; 0.000000;,
           0.000000; 0.000000;-1.000000;,
           0.000000; 0.000000; 1.000000;,
          -1.000000; 0.000000; 0.000000;,
           0.000000; 1.000000;-0.000000;,
           1.000000; 0.000000;-0.000000;,
           0.000000;-1.000000; 0.000000;,
          -0.000000; 0.000000;-1.000000;,
          -0.000000; 0.000000; 1.000000;;
          60;
          4;0,0,0,0;,
          4;1,1,1,1;,
          4;2,2,2,2;,
          4;3,3,3,3;,
          4;4,4,4,4;,
          4;5,5,5,5;,
          4;6,6,6,6;,
          4;7,7,7,7;,
          4;8,8,8,8;,
          4;9,9,9,9;,
          4;10,10,10,10;,
          4;11,11,11,11;,
          4;12,12,12,12;,
          4;13,13,13,13;,
          4;14,14,14,14;,
          4;15,15,15,15;,
          4;16,16,16,16;,
          4;17,17,17,17;,
          4;18,18,18,18;,
          4;19,19,19,19;,
          4;20,20,20,20;,
          4;21,21,21,21;,
          4;22,22,22,22;,
          4;23,23,23,23;,
          4;24,24,24,24;,
          4;25,25,25,25;,
          4;26,26,26,26;,
          4;27,27,27,27;,
          4;28,28,28,28;,
          4;29,29,29,29;,
          4;30,30,30,30;,
          4;31,31,31,31;,
          4;32,32,32,32;,
          4;33,33,33,33;,
          4;34,34,34,34;,
          4;35,35,35,35;,
          4;36,36,36,36;,
          4;37,37,37,37;,
          4;38,38,38,38;,
          4;39,39,39,39;,
          4;40,40,40,40;,
          4;41,41,41,41;,
          4;42,42,42,42;,
          4;43,43,43,43;,
          4;44,44,44,44;,
          4;45,45,45,45;,
          4;46,46,46,46;,
          4;47,47,47,47;,
          4;48,48,48,48;,
          4;49,49,49,49;,
          4;50,50,50,50;,
          4;51,51,51,51;,
          4;52,52,52,52;,
          4;53,53,53,53;,
          4;54,54,54,54;,
          4;55,55,55,55;,
          4;56,56,56,56;,
          4;57,57,57,57;,
          4;58,58,58,58;,
          4;59,59,59,59;;
        } // End of Cube normals
        MeshTextureCoords { // Cube UV coordinates
          240;
           0.046875; 0.187500;,
           0.046875; 0.093750;,
           0.000000; 0.093750;,
           0.000000; 0.187500;,
           0.000000; 0.187500;,
           0.046875; 0.187500;,
           0.046875; 0.093750;,
           0.000000; 0.093750;,
           0.187500; 0.000000;,
           0.000000; 0.000000;,
           0.000000; 0.093750;,
           0.187500; 0.093750;,
           0.187500; 0.000000;,
           0.000000; 0.000000;,
           0.000000; 0.093750;,
           0.187500; 0.093750;,
           0.187500; 0.000000;,
           0.000000; 0.000000;,
           0.000000; 0.093750;,
           0.187500; 0.093750;,
           0.000000; 0.093750;,
           0.187500; 0.093750;,
           0.187500; 0.000000;,
           0.000000; 0.000000;,
           0.109375; 0.125000;,
           0.109375; 0.218750;,
           0.062500; 0.218750;,
           0.062500; 0.125000;,
           0.062500; 0.218750;,
           0.109375; 0.218750;,
           0.109375; 0.125000;,
           0.062500; 0.125000;,
           0.062500; 0.125000;,
           0.062500; 0.218750;,
           0.109375; 0.218750;,
           0.109375; 0.125000;,
           0.109375; 0.218750;,
           0.062500; 0.218750;,
           0.062500; 0.125000;,
           0.109375; 0.125000;,
           0.109375; 0.125000;,
           0.109375; 0.125000;,
           0.109375; 0.125000;,
           0.109375; 0.125000;,
           0.062500; 0.218750;,
           0.062500; 0.125000;,
           0.109375; 0.125000;,
           0.109375; 0.218750;,
           0.093750; 0.156250;,
           0.093750; 0.156250;,
           0.093750; 0.156250;,
           0.093750; 0.156250;,
           0.078125; 0.156250;,
           0.078125; 0.156250;,
           0.078125; 0.156250;,
           0.078125; 0.156250;,
           0.062500; 0.125000;,
           0.062500; 0.218750;,
           0.109375; 0.218750;,
           0.109375; 0.125000;,
           0.078125; 0.156250;,
           0.078125; 0.156250;,
           0.078125; 0.156250;,
           0.078125; 0.156250;,
           0.109375; 0.125000;,
           0.109375; 0.125000;,
           0.109375; 0.125000;,
           0.109375; 0.125000;,
           0.078125; 0.187500;,
           0.093750; 0.187500;,
           0.093750; 0.187500;,
           0.093750; 0.187500;,
           0.093750; 0.156250;,
           0.093750; 0.156250;,
           0.093750; 0.156250;,
           0.093750; 0.156250;,
           0.078125; 0.156250;,
           0.093750; 0.156250;,
           0.093750; 0.156250;,
           0.093750; 0.156250;,
           0.109375; 0.218750;,
           0.109375; 0.125000;,
           0.062500; 0.125000;,
           0.062500; 0.218750;,
           0.093750; 0.156250;,
           0.093750; 0.156250;,
           0.093750; 0.156250;,
           0.093750; 0.156250;,
           0.109375; 0.125000;,
           0.109375; 0.125000;,
           0.109375; 0.125000;,
           0.109375; 0.125000;,
           0.109375; 0.218750;,
           0.109375; 0.125000;,
           0.062500; 0.125000;,
           0.062500; 0.218750;,
           0.093750; 0.156250;,
           0.093750; 0.156250;,
           0.093750; 0.156250;,
           0.093750; 0.156250;,
           0.078125; 0.156250;,
           0.078125; 0.156250;,
           0.078125; 0.156250;,
           0.078125; 0.156250;,
           0.093750; 0.156250;,
           0.093750; 0.156250;,
           0.093750; 0.156250;,
           0.093750; 0.156250;,
           0.078125; 0.156250;,
           0.093750; 0.156250;,
           0.093750; 0.156250;,
           0.078125; 0.156250;,
           0.109375; 0.125000;,
           0.109375; 0.125000;,
           0.109375; 0.218750;,
           0.109375; 0.218750;,
           0.093750; 0.187500;,
           0.093750; 0.187500;,
           0.093750; 0.187500;,
           0.093750; 0.187500;,
           0.062500; 0.125000;,
           0.062500; 0.218750;,
           0.109375; 0.218750;,
           0.109375; 0.125000;,
           0.109375; 0.125000;,
           0.109375; 0.218750;,
           0.062500; 0.218750;,
           0.062500; 0.125000;,
           0.109375; 0.218750;,
           0.109375; 0.125000;,
           0.062500; 0.125000;,
           0.062500; 0.218750;,
           0.109375; 0.125000;,
           0.109375; 0.218750;,
           0.062500; 0.218750;,
           0.062500; 0.125000;,
           0.109375; 0.125000;,
           0.109375; 0.218750;,
           0.062500; 0.218750;,
           0.062500; 0.125000;,
           0.109375; 0.125000;,
           0.109375; 0.218750;,
           0.062500; 0.218750;,
           0.062500; 0.125000;,
           0.062500; 0.218750;,
           0.062500; 0.125000;,
           0.109375; 0.125000;,
           0.109375; 0.218750;,
           0.062500; 0.218750;,
           0.062500; 0.125000;,
           0.109375; 0.125000;,
           0.109375; 0.218750;,
           0.109375; 0.218750;,
           0.109375; 0.125000;,
           0.062500; 0.125000;,
           0.062500; 0.218750;,
           0.062500; 0.125000;,
           0.109375; 0.125000;,
           0.109375; 0.218750;,
           0.062500; 0.218750;,
           0.109375; 0.218750;,
           0.062500; 0.218750;,
           0.062500; 0.125000;,
           0.109375; 0.125000;,
           0.062500; 0.218750;,
           0.062500; 0.125000;,
           0.109375; 0.125000;,
           0.109375; 0.218750;,
           0.093750; 0.187500;,
           0.093750; 0.156250;,
           0.093750; 0.156250;,
           0.093750; 0.187500;,
           0.093750; 0.187500;,
           0.093750; 0.187500;,
           0.093750; 0.187500;,
           0.093750; 0.187500;,
           0.078125; 0.156250;,
           0.078125; 0.187500;,
           0.078125; 0.187500;,
           0.078125; 0.156250;,
           0.093750; 0.187500;,
           0.093750; 0.187500;,
           0.093750; 0.187500;,
           0.093750; 0.187500;,
           0.078125; 0.187500;,
           0.078125; 0.187500;,
           0.078125; 0.187500;,
           0.078125; 0.187500;,
           0.093750; 0.187500;,
           0.093750; 0.187500;,
           0.078125; 0.187500;,
           0.093750; 0.187500;,
           0.093750; 0.156250;,
           0.093750; 0.187500;,
           0.093750; 0.187500;,
           0.093750; 0.156250;,
           0.093750; 0.187500;,
           0.093750; 0.187500;,
           0.093750; 0.187500;,
           0.093750; 0.187500;,
           0.093750; 0.156250;,
           0.093750; 0.187500;,
           0.093750; 0.187500;,
           0.093750; 0.156250;,
           0.093750; 0.187500;,
           0.093750; 0.187500;,
           0.093750; 0.187500;,
           0.093750; 0.187500;,
           0.109375; 0.218750;,
           0.109375; 0.218750;,
           0.109375; 0.218750;,
           0.109375; 0.218750;,
           0.093750; 0.187500;,
           0.093750; 0.187500;,
           0.093750; 0.187500;,
           0.093750; 0.187500;,
           0.140625; 0.125000;,
           0.109375; 0.125000;,
           0.109375; 0.218750;,
           0.140625; 0.218750;,
           0.140625; 0.125000;,
           0.109375; 0.125000;,
           0.109375; 0.218750;,
           0.140625; 0.218750;,
           0.140625; 0.125000;,
           0.109375; 0.125000;,
           0.109375; 0.218750;,
           0.140625; 0.218750;,
           0.109375; 0.218750;,
           0.140625; 0.218750;,
           0.140625; 0.125000;,
           0.109375; 0.125000;,
           0.140625; 0.187500;,
           0.125000; 0.187500;,
           0.125000; 0.218750;,
           0.140625; 0.218750;,
           0.109375; 0.187500;,
           0.109375; 0.218750;,
           0.125000; 0.218750;,
           0.125000; 0.187500;;
        } // End of Cube UV coordinates
        MeshMaterialList { // Cube material list
          1;
          60;
          0,
          0,
          0,
          0,
          0,
          0,
          0,
          0,
          0,
          0,
          0,
          0,
          0,
          0,
          0,
          0,
          0,
          0,
          0,
          0,
          0,
          0,
          0,
          0,
          0,
          0,
          0,
          0,
          0,
          0,
          0,
          0,
          0,
          0,
          0,
          0,
          0,
          0,
          0,
          0,
          0,
          0,
          0,
          0,
          0,
          0,
          0,
          0,
          0,
          0,
          0,
          0,
          0,
          0,
          0,
          0,
          0,
          0,
          0,
          0;;
          Material Material {
             0.640000; 0.640000; 0.640000; 1.000000;;
             96.078431;
             0.500000; 0.500000; 0.500000;;
             0.000000; 0.000000; 0.000000;;
            TextureFilename {"buoytexture.png";}
          }
        } // End of Cube material list
        XSkinMeshHeader {
          1;
          3;
          1;
        }
        SkinWeights {
          "Armature_Bone";
          240;
          0,
          1,
          2,
          3,
          4,
          5,
          6,
          7,
          8,
          9,
          10,
          11,
          12,
          13,
          14,
          15,
          16,
          17,
          18,
          19,
          20,
          21,
          22,
          23,
          24,
          25,
          26,
          27,
          28,
          29,
          30,
          31,
          32,
          33,
          34,
          35,
          36,
          37,
          38,
          39,
          40,
          41,
          42,
          43,
          44,
          45,
          46,
          47,
          48,
          49,
          50,
          51,
          52,
          53,
          54,
          55,
          56,
          57,
          58,
          59,
          60,
          61,
          62,
          63,
          64,
          65,
          66,
          67,
          68,
          69,
          70,
          71,
          72,
          73,
          74,
          75,
          76,
          77,
          78,
          79,
          80,
          81,
          82,
          83,
          84,
          85,
          86,
          87,
          88,
          89,
          90,
          91,
          92,
          93,
          94,
          95,
          96,
          97,
          98,
          99,
          100,
          101,
          102,
          103,
          104,
          105,
          106,
          107,
          108,
          109,
          110,
          111,
          112,
          113,
          114,
          115,
          116,
          117,
          118,
          119,
          120,
          121,
          122,
          123,
          124,
          125,
          126,
          127,
          128,
          129,
          130,
          131,
          132,
          133,
          134,
          135,
          136,
          137,
          138,
          139,
          140,
          141,
          142,
          143,
          144,
          145,
          146,
          147,
          148,
          149,
          150,
          151,
          152,
          153,
          154,
          155,
          156,
          157,
          158,
          159,
          160,
          161,
          162,
          163,
          164,
          165,
          166,
          167,
          168,
          169,
          170,
          171,
          172,
          173,
          174,
          175,
          176,
          177,
          178,
          179,
          180,
          181,
          182,
          183,
          184,
          185,
          186,
          187,
          188,
          189,
          190,
          191,
          192,
          193,
          194,
          195,
          196,
          197,
          198,
          199,
          200,
          201,
          202,
          203,
          204,
          205,
          206,
          207,
          208,
          209,
          210,
          211,
          212,
          213,
          214,
          215,
          216,
          217,
          218,
          219,
          220,
          221,
          222,
          223,
          224,
          225,
          226,
          227,
          228,
          229,
          230,
          231,
          232,
          233,
          234,
          235,
          236,
          237,
          238,
          239;
           1.000000,
           1.000000,
           1.000000,
           1.000000,
           1.000000,
           1.000000,
           1.000000,
           1.000000,
           1.000000,
           1.000000,
           1.000000,
           1.000000,
           1.000000,
           1.000000,
           1.000000,
           1.000000,
           1.000000,
           1.000000,
           1.000000,
           1.000000,
           1.000000,
           1.000000,
           1.000000,
           1.000000,
           1.000000,
           1.000000,
           1.000000,
           1.000000,
           1.000000,
           1.000000,
           1.000000,
           1.000000,
           1.000000,
           1.000000,
           1.000000,
           1.000000,
           1.000000,
           1.000000,
           1.000000,
           1.000000,
           1.000000,
           1.000000,
           1.000000,
           1.000000,
           1.000000,
           1.000000,
           1.000000,
           1.000000,
           1.000000,
           1.000000,
           1.000000,
           1.000000,
           1.000000,
           1.000000,
           1.000000,
           1.000000,
           1.000000,
           1.000000,
           1.000000,
           1.000000,
           1.000000,
           1.000000,
           1.000000,
           1.000000,
           1.000000,
           1.000000,
           1.000000,
           1.000000,
           1.000000,
           1.000000,
           1.000000,
           1.000000,
           1.000000,
           1.000000,
           1.000000,
           1.000000,
           1.000000,
           1.000000,
           1.000000,
           1.000000,
           1.000000,
           1.000000,
           1.000000,
           1.000000,
           1.000000,
           1.000000,
           1.000000,
           1.000000,
           1.000000,
           1.000000,
           1.000000,
           1.000000,
           1.000000,
           1.000000,
           1.000000,
           1.000000,
           1.000000,
           1.000000,
           1.000000,
           1.000000,
           1.000000,
           1.000000,
           1.000000,
           1.000000,
           1.000000,
           1.000000,
           1.000000,
           1.000000,
           1.000000,
           1.000000,
           1.000000,
           1.000000,
           1.000000,
           1.000000,
           1.000000,
           1.000000,
           1.000000,
           1.000000,
           1.000000,
           1.000000,
           1.000000,
           1.000000,
           1.000000,
           1.000000,
           1.000000,
           1.000000,
           1.000000,
           1.000000,
           1.000000,
           1.000000,
           1.000000,
           1.000000,
           1.000000,
           1.000000,
           1.000000,
           1.000000,
           1.000000,
           1.000000,
           1.000000,
           1.000000,
           1.000000,
           1.000000,
           1.000000,
           1.000000,
           1.000000,
           1.000000,
           1.000000,
           1.000000,
           1.000000,
           1.000000,
           1.000000,
           1.000000,
           1.000000,
           1.000000,
           1.000000,
           1.000000,
           1.000000,
           1.000000,
           1.000000,
           1.000000,
           1.000000,
           1.000000,
           1.000000,
           1.000000,
           1.000000,
           1.000000,
           1.000000,
           1.000000,
           1.000000,
           1.000000,
           1.000000,
           1.000000,
           1.000000,
           1.000000,
           1.000000,
           1.000000,
           1.000000,
           1.000000,
           1.000000,
           1.000000,
           1.000000,
           1.000000,
           1.000000,
           1.000000,
           1.000000,
           1.000000,
           1.000000,
           1.000000,
           1.000000,
           1.000000,
           1.000000,
           1.000000,
           1.000000,
           1.000000,
           1.000000,
           1.000000,
           1.000000,
           1.000000,
           1.000000,
           1.000000,
           1.000000,
           1.000000,
           1.000000,
           1.000000,
           1.000000,
           1.000000,
           1.000000,
           1.000000,
           1.000000,
           1.000000,
           1.000000,
           1.000000,
           1.000000,
           1.000000,
           1.000000,
           1.000000,
           1.000000,
           1.000000,
           1.000000,
           1.000000,
           1.000000,
           1.000000,
           1.000000,
           1.000000,
           1.000000,
           1.000000,
           1.000000,
           1.000000,
           1.000000,
           1.000000,
           1.000000,
           1.000000,
           1.000000,
           1.000000,
           1.000000,
           1.000000,
           1.000000,
           1.000000,
           1.000000,
           1.000000;
           0.359120, 0.000000, 0.000000, 0.000000,
           0.000000, 0.000000,-0.359120, 0.000000,
           0.000000, 0.359120, 0.000000, 0.000000,
           0.000000, 0.420019, 0.000000, 1.000000;;
        } // End of Armature_Bone skin weights
      } // End of Cube mesh
    } // End of Cube
  } // End of Armature
} // End of Root
AnimationSet ArmatureAction_001 {
  Animation {
    {Armature}
    AnimationKey { // Rotation
      0;
      41;
      0;4;-1.000000, 0.000000, 0.000000, 0.000000;;,
      1;4;-1.000000, 0.000000, 0.000000, 0.000000;;,
      2;4;-1.000000, 0.000000, 0.000000, 0.000000;;,
      3;4;-1.000000, 0.000000, 0.000000, 0.000000;;,
      4;4;-1.000000, 0.000000, 0.000000, 0.000000;;,
      5;4;-1.000000, 0.000000, 0.000000, 0.000000;;,
      6;4;-1.000000, 0.000000, 0.000000, 0.000000;;,
      7;4;-1.000000, 0.000000, 0.000000, 0.000000;;,
      8;4;-1.000000, 0.000000, 0.000000, 0.000000;;,
      9;4;-1.000000, 0.000000, 0.000000, 0.000000;;,
      10;4;-1.000000, 0.000000, 0.000000, 0.000000;;,
      11;4;-1.000000, 0.000000, 0.000000, 0.000000;;,
      12;4;-1.000000, 0.000000, 0.000000, 0.000000;;,
      13;4;-1.000000, 0.000000, 0.000000, 0.000000;;,
      14;4;-1.000000, 0.000000, 0.000000, 0.000000;;,
      15;4;-1.000000, 0.000000, 0.000000, 0.000000;;,
      16;4;-1.000000, 0.000000, 0.000000, 0.000000;;,
      17;4;-1.000000, 0.000000, 0.000000, 0.000000;;,
      18;4;-1.000000, 0.000000, 0.000000, 0.000000;;,
      19;4;-1.000000, 0.000000, 0.000000, 0.000000;;,
      20;4;-1.000000, 0.000000, 0.000000, 0.000000;;,
      21;4;-1.000000, 0.000000, 0.000000, 0.000000;;,
      22;4;-1.000000, 0.000000, 0.000000, 0.000000;;,
      23;4;-1.000000, 0.000000, 0.000000, 0.000000;;,
      24;4;-1.000000, 0.000000, 0.000000, 0.000000;;,
      25;4;-1.000000, 0.000000, 0.000000, 0.000000;;,
      26;4;-1.000000, 0.000000, 0.000000, 0.000000;;,
      27;4;-1.000000, 0.000000, 0.000000, 0.000000;;,
      28;4;-1.000000, 0.000000, 0.000000, 0.000000;;,
      29;4;-1.000000, 0.000000, 0.000000, 0.000000;;,
      30;4;-1.000000, 0.000000, 0.000000, 0.000000;;,
      31;4;-1.000000, 0.000000, 0.000000, 0.000000;;,
      32;4;-1.000000, 0.000000, 0.000000, 0.000000;;,
      33;4;-1.000000, 0.000000, 0.000000, 0.000000;;,
      34;4;-1.000000, 0.000000, 0.000000, 0.000000;;,
      35;4;-1.000000, 0.000000, 0.000000, 0.000000;;,
      36;4;-1.000000, 0.000000, 0.000000, 0.000000;;,
      37;4;-1.000000, 0.000000, 0.000000, 0.000000;;,
      38;4;-1.000000, 0.000000, 0.000000, 0.000000;;,
      39;4;-1.000000, 0.000000, 0.000000, 0.000000;;,
      40;4;-1.000000, 0.000000, 0.000000, 0.000000;;;
    }
    AnimationKey { // Scale
      1;
      41;
      0;3; 2.784585, 2.784585, 2.784585;;,
      1;3; 2.784585, 2.784585, 2.784585;;,
      2;3; 2.784585, 2.784585, 2.784585;;,
      3;3; 2.784585, 2.784585, 2.784585;;,
      4;3; 2.784585, 2.784585, 2.784585;;,
      5;3; 2.784585, 2.784585, 2.784585;;,
      6;3; 2.784585, 2.784585, 2.784585;;,
      7;3; 2.784585, 2.784585, 2.784585;;,
      8;3; 2.784585, 2.784585, 2.784585;;,
      9;3; 2.784585, 2.784585, 2.784585;;,
      10;3; 2.784585, 2.784585, 2.784585;;,
      11;3; 2.784585, 2.784585, 2.784585;;,
      12;3; 2.784585, 2.784585, 2.784585;;,
      13;3; 2.784585, 2.784585, 2.784585;;,
      14;3; 2.784585, 2.784585, 2.784585;;,
      15;3; 2.784585, 2.784585, 2.784585;;,
      16;3; 2.784585, 2.784585, 2.784585;;,
      17;3; 2.784585, 2.784585, 2.784585;;,
      18;3; 2.784585, 2.784585, 2.784585;;,
      19;3; 2.784585, 2.784585, 2.784585;;,
      20;3; 2.784585, 2.784585, 2.784585;;,
      21;3; 2.784585, 2.784585, 2.784585;;,
      22;3; 2.784585, 2.784585, 2.784585;;,
      23;3; 2.784585, 2.784585, 2.784585;;,
      24;3; 2.784585, 2.784585, 2.784585;;,
      25;3; 2.784585, 2.784585, 2.784585;;,
      26;3; 2.784585, 2.784585, 2.784585;;,
      27;3; 2.784585, 2.784585, 2.784585;;,
      28;3; 2.784585, 2.784585, 2.784585;;,
      29;3; 2.784585, 2.784585, 2.784585;;,
      30;3; 2.784585, 2.784585, 2.784585;;,
      31;3; 2.784585, 2.784585, 2.784585;;,
      32;3; 2.784585, 2.784585, 2.784585;;,
      33;3; 2.784585, 2.784585, 2.784585;;,
      34;3; 2.784585, 2.784585, 2.784585;;,
      35;3; 2.784585, 2.784585, 2.784585;;,
      36;3; 2.784585, 2.784585, 2.784585;;,
      37;3; 2.784585, 2.784585, 2.784585;;,
      38;3; 2.784585, 2.784585, 2.784585;;,
      39;3; 2.784585, 2.784585, 2.784585;;,
      40;3; 2.784585, 2.784585, 2.784585;;;
    }
    AnimationKey { // Position
      2;
      41;
      0;3; 0.000000, 0.000000, 0.000000;;,
      1;3; 0.000000, 0.000000, 0.000000;;,
      2;3; 0.000000, 0.000000, 0.000000;;,
      3;3; 0.000000, 0.000000, 0.000000;;,
      4;3; 0.000000, 0.000000, 0.000000;;,
      5;3; 0.000000, 0.000000, 0.000000;;,
      6;3; 0.000000, 0.000000, 0.000000;;,
      7;3; 0.000000, 0.000000, 0.000000;;,
      8;3; 0.000000, 0.000000, 0.000000;;,
      9;3; 0.000000, 0.000000, 0.000000;;,
      10;3; 0.000000, 0.000000, 0.000000;;,
      11;3; 0.000000, 0.000000, 0.000000;;,
      12;3; 0.000000, 0.000000, 0.000000;;,
      13;3; 0.000000, 0.000000, 0.000000;;,
      14;3; 0.000000, 0.000000, 0.000000;;,
      15;3; 0.000000, 0.000000, 0.000000;;,
      16;3; 0.000000, 0.000000, 0.000000;;,
      17;3; 0.000000, 0.000000, 0.000000;;,
      18;3; 0.000000, 0.000000, 0.000000;;,
      19;3; 0.000000, 0.000000, 0.000000;;,
      20;3; 0.000000, 0.000000, 0.000000;;,
      21;3; 0.000000, 0.000000, 0.000000;;,
      22;3; 0.000000, 0.000000, 0.000000;;,
      23;3; 0.000000, 0.000000, 0.000000;;,
      24;3; 0.000000, 0.000000, 0.000000;;,
      25;3; 0.000000, 0.000000, 0.000000;;,
      26;3; 0.000000, 0.000000, 0.000000;;,
      27;3; 0.000000, 0.000000, 0.000000;;,
      28;3; 0.000000, 0.000000, 0.000000;;,
      29;3; 0.000000, 0.000000, 0.000000;;,
      30;3; 0.000000, 0.000000, 0.000000;;,
      31;3; 0.000000, 0.000000, 0.000000;;,
      32;3; 0.000000, 0.000000, 0.000000;;,
      33;3; 0.000000, 0.000000, 0.000000;;,
      34;3; 0.000000, 0.000000, 0.000000;;,
      35;3; 0.000000, 0.000000, 0.000000;;,
      36;3; 0.000000, 0.000000, 0.000000;;,
      37;3; 0.000000, 0.000000, 0.000000;;,
      38;3; 0.000000, 0.000000, 0.000000;;,
      39;3; 0.000000, 0.000000, 0.000000;;,
      40;3; 0.000000, 0.000000, 0.000000;;;
    }
  }
  Animation {
    {Armature_Bone}
    AnimationKey { // Rotation
      0;
      41;
      0;4;-0.707107, 0.707107, 0.000000, 0.000000;;,
      1;4;-0.707107, 0.707107, 0.000000, 0.000000;;,
      2;4;-0.707107, 0.707107, 0.000000, 0.000000;;,
      3;4;-0.707107, 0.707107, 0.000000, 0.000000;;,
      4;4;-0.707107, 0.707107, 0.000000, 0.000000;;,
      5;4;-0.707107, 0.707107, 0.000000, 0.000000;;,
      6;4;-0.707107, 0.707107, 0.000000, 0.000000;;,
      7;4;-0.707107, 0.707107, 0.000000, 0.000000;;,
      8;4;-0.707107, 0.707107, 0.000000, 0.000000;;,
      9;4;-0.707107, 0.707107, 0.000000, 0.000000;;,
      10;4;-0.707107, 0.707107, 0.000000, 0.000000;;,
      11;4;-0.707107, 0.707107, 0.000000, 0.000000;;,
      12;4;-0.707107, 0.707107, 0.000000, 0.000000;;,
      13;4;-0.707107, 0.707107, 0.000000, 0.000000;;,
      14;4;-0.707107, 0.707107, 0.000000, 0.000000;;,
      15;4;-0.707107, 0.707107, 0.000000, 0.000000;;,
      16;4;-0.707107, 0.707107, 0.000000, 0.000000;;,
      17;4;-0.707107, 0.707107, 0.000000, 0.000000;;,
      18;4;-0.707107, 0.707107, 0.000000, 0.000000;;,
      19;4;-0.707107, 0.707107, 0.000000, 0.000000;;,
      20;4;-0.707107, 0.707107, 0.000000, 0.000000;;,
      21;4;-0.707107, 0.707107, 0.000000, 0.000000;;,
      22;4;-0.707107, 0.707107, 0.000000, 0.000000;;,
      23;4;-0.707107, 0.707107, 0.000000, 0.000000;;,
      24;4;-0.707107, 0.707107, 0.000000, 0.000000;;,
      25;4;-0.707107, 0.707107, 0.000000, 0.000000;;,
      26;4;-0.707107, 0.707107, 0.000000, 0.000000;;,
      27;4;-0.707107, 0.707107, 0.000000, 0.000000;;,
      28;4;-0.707107, 0.707107, 0.000000, 0.000000;;,
      29;4;-0.707107, 0.707107, 0.000000, 0.000000;;,
      30;4;-0.707107, 0.707107, 0.000000, 0.000000;;,
      31;4;-0.707107, 0.707107, 0.000000, 0.000000;;,
      32;4;-0.707107, 0.707107, 0.000000, 0.000000;;,
      33;4;-0.707107, 0.707107, 0.000000, 0.000000;;,
      34;4;-0.707107, 0.707107, 0.000000, 0.000000;;,
      35;4;-0.707107, 0.707107, 0.000000, 0.000000;;,
      36;4;-0.707107, 0.707107, 0.000000, 0.000000;;,
      37;4;-0.707107, 0.707107, 0.000000, 0.000000;;,
      38;4;-0.707107, 0.707107, 0.000000, 0.000000;;,
      39;4;-0.707107, 0.707107, 0.000000, 0.000000;;,
      40;4;-0.707107, 0.707107, 0.000000, 0.000000;;;
    }
    AnimationKey { // Scale
      1;
      41;
      0;3; 1.000000, 1.000000, 1.000000;;,
      1;3; 1.000000, 1.000000, 1.000000;;,
      2;3; 1.000000, 1.000000, 1.000000;;,
      3;3; 1.000000, 1.000000, 1.000000;;,
      4;3; 1.000000, 1.000000, 1.000000;;,
      5;3; 1.000000, 1.000000, 1.000000;;,
      6;3; 1.000000, 1.000000, 1.000000;;,
      7;3; 1.000000, 1.000000, 1.000000;;,
      8;3; 1.000000, 1.000000, 1.000000;;,
      9;3; 1.000000, 1.000000, 1.000000;;,
      10;3; 1.000000, 1.000000, 1.000000;;,
      11;3; 1.000000, 1.000000, 1.000000;;,
      12;3; 1.000000, 1.000000, 1.000000;;,
      13;3; 1.000000, 1.000000, 1.000000;;,
      14;3; 1.000000, 1.000000, 1.000000;;,
      15;3; 1.000000, 1.000000, 1.000000;;,
      16;3; 1.000000, 1.000000, 1.000000;;,
      17;3; 1.000000, 1.000000, 1.000000;;,
      18;3; 1.000000, 1.000000, 1.000000;;,
      19;3; 1.000000, 1.000000, 1.000000;;,
      20;3; 1.000000, 1.000000, 1.000000;;,
      21;3; 1.000000, 1.000000, 1.000000;;,
      22;3; 1.000000, 1.000000, 1.000000;;,
      23;3; 1.000000, 1.000000, 1.000000;;,
      24;3; 1.000000, 1.000000, 1.000000;;,
      25;3; 1.000000, 1.000000, 1.000000;;,
      26;3; 1.000000, 1.000000, 1.000000;;,
      27;3; 1.000000, 1.000000, 1.000000;;,
      28;3; 1.000000, 1.000000, 1.000000;;,
      29;3; 1.000000, 1.000000, 1.000000;;,
      30;3; 1.000000, 1.000000, 1.000000;;,
      31;3; 1.000000, 1.000000, 1.000000;;,
      32;3; 1.000000, 1.000000, 1.000000;;,
      33;3; 1.000000, 1.000000, 1.000000;;,
      34;3; 1.000000, 1.000000, 1.000000;;,
      35;3; 1.000000, 1.000000, 1.000000;;,
      36;3; 1.000000, 1.000000, 1.000000;;,
      37;3; 1.000000, 1.000000, 1.000000;;,
      38;3; 1.000000, 1.000000, 1.000000;;,
      39;3; 1.000000, 1.000000, 1.000000;;,
      40;3; 1.000000, 1.000000, 1.000000;;;
    }
    AnimationKey { // Position
      2;
      41;
      0;3; 0.000000, 0.000000,-0.420019;;,
      1;3; 0.000000, 0.000000,-0.419383;;,
      2;3; 0.000000, 0.000000,-0.417459;;,
      3;3; 0.000000, 0.000000,-0.414241;;,
      4;3; 0.000000, 0.000000,-0.409752;;,
      5;3; 0.000000, 0.000000,-0.404046;;,
      6;3; 0.000000, 0.000000,-0.397221;;,
      7;3; 0.000000, 0.000000,-0.389419;;,
      8;3; 0.000000, 0.000000,-0.380831;;,
      9;3; 0.000000, 0.000000,-0.371690;;,
      10;3; 0.000000, 0.000000,-0.362264;;,
      11;3; 0.000000, 0.000000,-0.352838;;,
      12;3; 0.000000, 0.000000,-0.343698;;,
      13;3; 0.000000, 0.000000,-0.335110;;,
      14;3; 0.000000, 0.000000,-0.327308;;,
      15;3; 0.000000, 0.000000,-0.320483;;,
      16;3; 0.000000, 0.000000,-0.314777;;,
      17;3; 0.000000, 0.000000,-0.310288;;,
      18;3; 0.000000, 0.000000,-0.307071;;,
      19;3; 0.000000,-0.000000,-0.305147;;,
      20;3; 0.000000, 0.000000,-0.304510;;,
      21;3; 0.000000, 0.000000,-0.305147;;,
      22;3; 0.000000, 0.000000,-0.307071;;,
      23;3; 0.000000, 0.000000,-0.310288;;,
      24;3; 0.000000, 0.000000,-0.314777;;,
      25;3; 0.000000, 0.000000,-0.320483;;,
      26;3; 0.000000, 0.000000,-0.327308;;,
      27;3; 0.000000, 0.000000,-0.335110;;,
      28;3; 0.000000, 0.000000,-0.343698;;,
      29;3; 0.000000, 0.000000,-0.352838;;,
      30;3; 0.000000, 0.000000,-0.362264;;,
      31;3; 0.000000, 0.000000,-0.371690;;,
      32;3; 0.000000, 0.000000,-0.380831;;,
      33;3; 0.000000, 0.000000,-0.389419;;,
      34;3; 0.000000, 0.000000,-0.397221;;,
      35;3; 0.000000, 0.000000,-0.404046;;,
      36;3; 0.000000, 0.000000,-0.409752;;,
      37;3; 0.000000, 0.000000,-0.414241;;,
      38;3; 0.000000, 0.000000,-0.417459;;,
      39;3; 0.000000, 0.000000,-0.419383;;,
      40;3; 0.000000, 0.000000,-0.420019;;;
    }
  }
} // End of AnimationSet ArmatureAction_001
AnimationSet Default_Action {
  Animation {
    {Cube}
    AnimationKey { // Rotation
      0;
      41;
      0;4;-1.000000, 0.000000, 0.000000, 0.000000;;,
      1;4;-1.000000, 0.000000, 0.000000, 0.000000;;,
      2;4;-1.000000, 0.000000, 0.000000, 0.000000;;,
      3;4;-1.000000, 0.000000, 0.000000, 0.000000;;,
      4;4;-1.000000, 0.000000, 0.000000, 0.000000;;,
      5;4;-1.000000, 0.000000, 0.000000, 0.000000;;,
      6;4;-1.000000, 0.000000, 0.000000, 0.000000;;,
      7;4;-1.000000, 0.000000, 0.000000, 0.000000;;,
      8;4;-1.000000, 0.000000, 0.000000, 0.000000;;,
      9;4;-1.000000, 0.000000, 0.000000, 0.000000;;,
      10;4;-1.000000, 0.000000, 0.000000, 0.000000;;,
      11;4;-1.000000, 0.000000, 0.000000, 0.000000;;,
      12;4;-1.000000, 0.000000, 0.000000, 0.000000;;,
      13;4;-1.000000, 0.000000, 0.000000, 0.000000;;,
      14;4;-1.000000, 0.000000, 0.000000, 0.000000;;,
      15;4;-1.000000, 0.000000, 0.000000, 0.000000;;,
      16;4;-1.000000, 0.000000, 0.000000, 0.000000;;,
      17;4;-1.000000, 0.000000, 0.000000, 0.000000;;,
      18;4;-1.000000, 0.000000, 0.000000, 0.000000;;,
      19;4;-1.000000, 0.000000, 0.000000, 0.000000;;,
      20;4;-1.000000, 0.000000, 0.000000, 0.000000;;,
      21;4;-1.000000, 0.000000, 0.000000, 0.000000;;,
      22;4;-1.000000, 0.000000, 0.000000, 0.000000;;,
      23;4;-1.000000, 0.000000, 0.000000, 0.000000;;,
      24;4;-1.000000, 0.000000, 0.000000, 0.000000;;,
      25;4;-1.000000, 0.000000, 0.000000, 0.000000;;,
      26;4;-1.000000, 0.000000, 0.000000, 0.000000;;,
      27;4;-1.000000, 0.000000, 0.000000, 0.000000;;,
      28;4;-1.000000, 0.000000, 0.000000, 0.000000;;,
      29;4;-1.000000, 0.000000, 0.000000, 0.000000;;,
      30;4;-1.000000, 0.000000, 0.000000, 0.000000;;,
      31;4;-1.000000, 0.000000, 0.000000, 0.000000;;,
      32;4;-1.000000, 0.000000, 0.000000, 0.000000;;,
      33;4;-1.000000, 0.000000, 0.000000, 0.000000;;,
      34;4;-1.000000, 0.000000, 0.000000, 0.000000;;,
      35;4;-1.000000, 0.000000, 0.000000, 0.000000;;,
      36;4;-1.000000, 0.000000, 0.000000, 0.000000;;,
      37;4;-1.000000, 0.000000, 0.000000, 0.000000;;,
      38;4;-1.000000, 0.000000, 0.000000, 0.000000;;,
      39;4;-1.000000, 0.000000, 0.000000, 0.000000;;,
      40;4;-1.000000, 0.000000, 0.000000, 0.000000;;;
    }
    AnimationKey { // Scale
      1;
      41;
      0;3; 0.359120, 0.359120, 0.359120;;,
      1;3; 0.359120, 0.359120, 0.359120;;,
      2;3; 0.359120, 0.359120, 0.359120;;,
      3;3; 0.359120, 0.359120, 0.359120;;,
      4;3; 0.359120, 0.359120, 0.359120;;,
      5;3; 0.359120, 0.359120, 0.359120;;,
      6;3; 0.359120, 0.359120, 0.359120;;,
      7;3; 0.359120, 0.359120, 0.359120;;,
      8;3; 0.359120, 0.359120, 0.359120;;,
      9;3; 0.359120, 0.359120, 0.359120;;,
      10;3; 0.359120, 0.359120, 0.359120;;,
      11;3; 0.359120, 0.359120, 0.359120;;,
      12;3; 0.359120, 0.359120, 0.359120;;,
      13;3; 0.359120, 0.359120, 0.359120;;,
      14;3; 0.359120, 0.359120, 0.359120;;,
      15;3; 0.359120, 0.359120, 0.359120;;,
      16;3; 0.359120, 0.359120, 0.359120;;,
      17;3; 0.359120, 0.359120, 0.359120;;,
      18;3; 0.359120, 0.359120, 0.359120;;,
      19;3; 0.359120, 0.359120, 0.359120;;,
      20;3; 0.359120, 0.359120, 0.359120;;,
      21;3; 0.359120, 0.359120, 0.359120;;,
      22;3; 0.359120, 0.359120, 0.359120;;,
      23;3; 0.359120, 0.359120, 0.359120;;,
      24;3; 0.359120, 0.359120, 0.359120;;,
      25;3; 0.359120, 0.359120, 0.359120;;,
      26;3; 0.359120, 0.359120, 0.359120;;,
      27;3; 0.359120, 0.359120, 0.359120;;,
      28;3; 0.359120, 0.359120, 0.359120;;,
      29;3; 0.359120, 0.359120, 0.359120;;,
      30;3; 0.359120, 0.359120, 0.359120;;,
      31;3; 0.359120, 0.359120, 0.359120;;,
      32;3; 0.359120, 0.359120, 0.359120;;,
      33;3; 0.359120, 0.359120, 0.359120;;,
      34;3; 0.359120, 0.359120, 0.359120;;,
      35;3; 0.359120, 0.359120, 0.359120;;,
      36;3; 0.359120, 0.359120, 0.359120;;,
      37;3; 0.359120, 0.359120, 0.359120;;,
      38;3; 0.359120, 0.359120, 0.359120;;,
      39;3; 0.359120, 0.359120, 0.359120;;,
      40;3; 0.359120, 0.359120, 0.359120;;;
    }
    AnimationKey { // Position
      2;
      41;
      0;3; 0.000000, 0.000000, 0.000000;;,
      1;3; 0.000000, 0.000000, 0.000000;;,
      2;3; 0.000000, 0.000000, 0.000000;;,
      3;3; 0.000000, 0.000000, 0.000000;;,
      4;3; 0.000000, 0.000000, 0.000000;;,
      5;3; 0.000000, 0.000000, 0.000000;;,
      6;3; 0.000000, 0.000000, 0.000000;;,
      7;3; 0.000000, 0.000000, 0.000000;;,
      8;3; 0.000000, 0.000000, 0.000000;;,
      9;3; 0.000000, 0.000000, 0.000000;;,
      10;3; 0.000000, 0.000000, 0.000000;;,
      11;3; 0.000000, 0.000000, 0.000000;;,
      12;3; 0.000000, 0.000000, 0.000000;;,
      13;3; 0.000000, 0.000000, 0.000000;;,
      14;3; 0.000000, 0.000000, 0.000000;;,
      15;3; 0.000000, 0.000000, 0.000000;;,
      16;3; 0.000000, 0.000000, 0.000000;;,
      17;3; 0.000000, 0.000000, 0.000000;;,
      18;3; 0.000000, 0.000000, 0.000000;;,
      19;3; 0.000000, 0.000000, 0.000000;;,
      20;3; 0.000000, 0.000000, 0.000000;;,
      21;3; 0.000000, 0.000000, 0.000000;;,
      22;3; 0.000000, 0.000000, 0.000000;;,
      23;3; 0.000000, 0.000000, 0.000000;;,
      24;3; 0.000000, 0.000000, 0.000000;;,
      25;3; 0.000000, 0.000000, 0.000000;;,
      26;3; 0.000000, 0.000000, 0.000000;;,
      27;3; 0.000000, 0.000000, 0.000000;;,
      28;3; 0.000000, 0.000000, 0.000000;;,
      29;3; 0.000000, 0.000000, 0.000000;;,
      30;3; 0.000000, 0.000000, 0.000000;;,
      31;3; 0.000000, 0.000000, 0.000000;;,
      32;3; 0.000000, 0.000000, 0.000000;;,
      33;3; 0.000000, 0.000000, 0.000000;;,
      34;3; 0.000000, 0.000000, 0.000000;;,
      35;3; 0.000000, 0.000000, 0.000000;;,
      36;3; 0.000000, 0.000000, 0.000000;;,
      37;3; 0.000000, 0.000000, 0.000000;;,
      38;3; 0.000000, 0.000000, 0.000000;;,
      39;3; 0.000000, 0.000000, 0.000000;;,
      40;3; 0.000000, 0.000000, 0.000000;;;
    }
  }
} // End of AnimationSet Default_Action
